4

044
79.9
1.0 0.0 0.0 -52.5
0.0 1.0 0.0 52.5
0.0 0.0 1.0 0.0

045
79.9
1.0 0.0 0.0 52.5
0.0 1.0 0.0 52.5
0.0 0.0 1.0 0.0

046
79.9
1.0 0.0 0.0 -52.5
0.0 1.0 0.0 -52.5
0.0 0.0 1.0 0.0

047
79.9
1.0 0.0 0.0 52.5
0.0 1.0 0.0 -52.5
0.0 0.0 1.0 0.0